2,Soumitro Vyapari,ee18b032@iittp.ac.in,Outstanding,IIT Tirupati
3,Navinkumar Kanagalingam,knavin2002@gmail.com,Outstanding,Puducherry Technological University
1,Satya Rajesh Medidi,rajesh0therascal@gmail.com,Outstanding,IGCAR
4,Tanuj Sindhwani,tanujsindhwani1992@gmail.com,Outstanding,Siemens EDA
5,Aishwarya Balkrishna Patil, b.aishpatil11.11@gmail.com,Outstanding,"Kolhapur Institute of Technology College of Engineering, Kolhapur"
6,Shaik Yousuf,yousuf122786@gmail.com,Outstanding,NIT Tiruchirappalli
7,Mohitha Kondapalli,kmohitha99@gmail.com,Outstanding,TechMahindraCerium
8,Vivek Nair,121901027@smail.iitpkd.ac.in,Outstanding,IIT Palakkad
9,Neha Singh,nehasingh3096@gmail.com,Outstanding,Siemens EDA
10,Raffaele Signoriello,raff.signoriello92@gmail.com,Outstanding,NA
11,Mohammed Shafi Ur Rehman,mshafi.9198@gmail.com,Excellent,National Institute of technology Tiruchirapalli 
12,Shirsendu B Acharyya,acharyya.nelson@gmail.com,Excellent,TMSL
13,Tushar Upadhyay,tushar.u110@gmail.com,Excellent,Manipal Institute of Technology
14,Rishabh Verma,vrishabh70086@gmail.com,Excellent,"Zakir Husain College of Engineering & Technology, Aligarh Muslim University"
15,Preethaa J,preethaa@ieee.org,Excellent,"College of Engineering, Guindy, Anna University"
16,Jayaraman R P, jrp.postbox@gmail.com,Excellent,Verifworks 
17,Thilak Kuppusamy,thilak1303@gmail.com,Excellent,Madras Institute of Technology
18,Darshan Datta Naik,darshandattan.ec20@rvce.edu.in,Excellent,"RV College of Engineering , Bengaluru"
19,Pramit Kumar Pal,pramitpalkumar@gmail.com,Excellent,"Techno International Newtown, MAKAUT"
20,Victor Swaroop G,victorswaroop2002@gmail.com,Excellent,VNR VJIET
21,Hrishikesh Badiger,imhrishi18@gmail.com,Excellent,KLE Technological University
22,Pavan Dheeraj,pavandheeraj1999@gmail.com,Excellent,SSN College of Engineering
23,Elavarasan P,elavarasanp002@gmail.com ,Excellent,Madras Institute of Technology 
24,Abhishek Das, rubaiagt@gmail.com,Excellent,"Birla Institute Of Technology And Science, Pilani"
25,K Aditya Sai,adityasai525@gmail.com,Excellent,"Indian Institute of Technology, Bhubaneswar"
26,Arpit Sharma,arpitniraliya306@gmail.com,Excellent,Inderprastha Engineering College [IPEC]
27,Vinayak Prakash Mali,malivinayak012@gmail.com,Excellent,"Kolhapur Institute of Technology's College of Engineering, Kolhapur"
28,Vinisha R,vinisharam2410@gmail.com,Excellent,"Madras Institute of Technology, Anna University"
29,Greeshmanth Nadella,greeshmanthnadella@gmail.com,Excellent,Infineon Technologies
30,Mustafa mohamed abdelhamid,moostafamohamedd@gmail.com,Excellent,faculty of engineering cairo university
31,Krunal Badlani,is21mtech14008@iith.ac.in,Very Good,Indian Institute of Technology Hyderabad
32,Arka Chakraborty,arkachakraborty16@gmail.com,Very Good,Jadavpur University
33,Krishna Gupta,krishna.gupta21100@gmail.com,Very Good,Jaypee Institute of Information Technology
34,Kevin Prakash,kp30091998@gmail.com,Very Good,BIT Pilani
35,Tanay Das,Tanay2019das@gmail.com ,Very Good,Sikkim Manipal Institute of Technology 
36,Souhardhya Paul,souhardhyapaul1999@gmail.com,Very Good,Self
37,Ch Kalyan Kumar Prusty,kalyanprusty@gmail.com,Very Good,IISc
38,Karan Sanghavi,karansanghvi98@gmail.com,Very Good,Sardar Patel Institute Of Tehnology
39,Vaikunth guruswamy,vaikunthgc@gmail.com,Very Good,"Madras Institute of Technology, Anna University"
40,Surya V,thorthunder2000@gmail.com,Very Good,IIITDM Kanchepuram
41,Lahari Sreeja Tallapaka,tallapakalahari@iitbhilai.ac.in,Very Good,Indian Institute of Technology - Bhilai (IIT Bhilai)
42,Mohamed Adel Mohamed Hassan,  mohammedadel1999777@gmail.com,Very Good,Cairo University
43,INDERJIT SINGH DHANJAL,inderjitsingh87@gmail.com,Very Good,K.J Somaiya College of Engineering
44,Paripati Yeshwanth,yeshuwanth1998@gmail.com,Very Good,Synopsys India Pvt. Ltd.
45,Garv Jain,garv208@gmail.com,Very Good,Indian Institute of Technology Patna
46,Thomas M Josline,thomasm@iitbhilai.ac.in,Very Good,"Indian Institute of Technology, Bhilai"
47,Sheshu Ramanandan,krsheshu@gmail.com,Very Good,Smartray GmbH
48,Tanya Tyagi,tanyatyagi35@gmail.com,Very Good,INDIRA GANDHI DELHI TECHNICAL UNIVERSITY FOR WOMEN
49,Nikhil Dewangan,nikhildewangan069@gmail.com,Very Good,Shri Shankaracharya Group of Institutions
50,Kolluru Yashwanth,kolluru.btech.ec19@iiitranchi.ac.in,Very Good,IIIT Ranchi
51,Anvay Pancholiya,anvayp.ec19@rvce.edu.in,Very Good,RV College of Engineering
52,Santanu Samanta,santanusamanta81@gmail.com,Good,Heritage Institute of Technology
53,R Abhinav,abhinavramesh270402@gmail.com,Good,Madras institute of technology
54,Amreen Kaur,is21mtech14002@iith.ac.in,Good,"Indian Institute of Technology, Hyderabad"
55,Diwakar B,kbdiwa3@gmail.com,Good,"MIT, Chennai"
56,Narra Hemanth Reddy,hemanthnarra432@gmail.com,Good,"JNTUH College of Engineering, Hyderabad"
57,Ritvik Rao,f20201232@pilani.bits-pilani.ac.in,Good,"Birla Institute of Technology and Science, Pilani Campus"
58,Karthik Mahendra Kumar Banakar,  karthikmb8@gmail.com,Good,Modernize Chip Solutions Pvt Ltd
59,Toushik Santra,toushiksantra@gmail.com,Good,NA
60,Ashwanth G,ashvanth1399@gmail.com,Good,Dr. N. G. P. Institute of technology
61,Sameer Yadav,sameer.yadav@iiitdmj.ac.in,Good,PDPM-IIIT JBP
62,Puneeth Kamatham,kpuneeth714@gmail.com,Good,Lovely Professional University
63,Manoj SReddy,manoj.sreddy@somaiya.edu,Good,K. J. Somaiya College of Engineering
64,Madala Changala Naga Lakshmi Neha,madalacnln.ic.20@nitj.ac.in,Good,"DR.B.R.Ambedkar National Institute of Technology, Jalandhar"
65,Divyanshu Pandey,pandeydivyanshu1000@gmail.com,Good,JSSATE NOIDA
66,Lakshmi Padmaja Rongali,padmaja118@gmail.com,Good,N/A
67,Avishke Choudhary,achoudhary2_be19@thapar.edu,Good,Thapar Institute of Engineering and Technology
68,Prajval S Vadakannavar,prajvals.ec19@bmsce.ac.in,Good,BMSCE
69,Mihir Rana,mihirrana620@gmail.com,Good,Nirma University
70,Jenish Shah,jenishshah08@gmail.com,Good,IIT Indore
71,Sree Ranjani Rajendran,sreeranjanirajendran@gmail.com,Good,University of Florida
72,Chaitanya Chhichhia,chaitanya.coding@gmail.com,Good,"Institute of Technology, Nirma University"
73,CHIKKARAJU ARUN,190040089ece@gmail.com,Good,K.L University (Guntur)
74,Jeenang Shah,jeenangshah1903@gmail.com,Good,Micron Technology Operations India LLP
75,Anushka Subramanian,anushkas.ec19@rvce.edu.in,Good,RVCE
76,Shreyas M,shreyas.mahesh.22@gmail.com,Good,NA
77,Emmanuel Innocent,sherlockhudep7@gmail.com,Good,Obafemi Awolowo University
78,ILIKA MITRA,ilikamitra@gmail.com,Good,NETAJI SUBHAS ENGINEERING COLLEGE
79,AMRUTHA V,amruthav2318@gmail.com,Good,HPE
80,Khoushikh S,khoushikhbalaji@gmail.com,Good,Infineon Technologies
81,Rohith Reddy Appidi,a.rohithreddy568@gmail.com,Good,VNRVJIET
82,Darisa Vinuthna Sri,18bec009@iiitdwd.ac.in,Good,IIIT Dharwad
83,Sudhanshu Singh,sudhanshu6163@gmail.com ,Good,Indian Institute of Technology Patna
84,Sidhant Priyadarshi,sidhant1922@gmail.com,Participated,Kle technological University
85,Vijaykumar Sajjanar,hi.vjkr@gmail.com,Participated,BLDEACET
86,Chhaya Belwal, chhayabelwal@gmail.com ,Participated,"Netaji Subhas University of Technology, Delhi"
87,Keerthana Madhusoodan,keerthanahari456@gmail.com,Participated,Kongu Engineering College
88,Yajnesh K,www.yajnesh302@gmail.com,Participated,Mangalore Institute of Technology and Engineering 
89,Animesh Jana ,animesh.jana07@gmail.com,Participated,National Institute of Technology Calicut 
90,Yash Tomar,pine.tomaryash@gmail.com,Participated,Vervesemi microelectronics 
91,Mohit Agarwal K,19bec073@gmail.com,Participated,Nirma University
92,Sajja Pratyusha,sajjapratyusha@gmail.com,Participated,AP-IIIT NUZVID
93,TANNEERU THALPASAI,t.thalpasai@gmail.com,Participated,SRM University 
94,Pranav Prabhu,prnv.prbh@gmail.com,Participated,"Manipal Institute of Technology,Manipal"
95,Madhuri H Kadam,madhurib.saksham@gmail.com,Participated,Shree L. R. Tiwari College of Engineering
96,A Devipriya ,adevipriya1900@gmail.com ,Participated,Trainee at VSD and SFAL 
97,Aakash K ,iaakashkrish@gmail.com,Participated,Trainee at VSD and SFAL 
98,MOHAMMED ZAKIR HUSSAIN,zakir.hussain.work@gmail.com,Participated,MUFFAKHAM JAH COLLEGE OF ENGINEERING AND TECHNOLOGY
99,Subha Ratno Das, subharatno.juetce@gmail.com,Participated,Jadavpur University
100,Soni Harshil,soniharshil15@gmail.com,Participated,Birla Vishvakarma Mahavidyalaya
101,Kalaiarasi.M,kalaibhuvan26@gmail.com,Participated,Thiagarajar College of Engineering
102,Zaid Akhtar,zaidakhtar102@gmail.com,Participated,Aligarh Muslim University
103,Maharshi Soni,maharahisoni@gmail.com,Participated,Birla Vishwakarma Mahavidyalaya(B.V.M)
104,Prajwal D Nayak,rdpraju7@gmail.com,Participated,PES University
105,Haritha Gopisetty,harithah931@gmail.com,Participated,Gayatri Vidya Parishad College of Engg(Autonomous)
106,Akshaya Adlakha,akshaya.adlakha@gmail.com,Participated,"Amity University, Noida"
107,Jayanth Nedunuri,jayanthsharma25@gmail.com,Participated,Jyothishmathi Institute of Technology and Science
108,S.Saravanan,saran@src.sastra.ac.in,Participated,SASTRA Deemed University
109,SREEJA KONANKI,konankisreeja@gmail.com,Participated,Tech Mahindra Cerium Systems Private Limited
110,Siddharth Sahu,siddharthsahu9039@gmail.com,Participated,IIITT
111,Nanubolu Ravi Kumar,nanuboluravikumar@gmail.com,Participated,Nitte Meenakshi Institute Of Technology
112,P Akhil Reddy,peesariakhil47@gmail.com,Participated,Koneru Lakshmaiah University(Klu)
113,Jay S Kaku,jay8kaku@gmail.com,Participated,University of Mumbai / Thadomal Shahani Engineering College
114,SRINIVASA T,tsrinivasa59@gmail.com,Participated,INFOSYS Ltd
115,Aishik Das,aishik.das08@gmail.com,Participated,Larson and Tourbo 
116,Gaeya Sri Satya Vinnakota,gaeyasrisatyavinnakota@gmail.com,Participated,Sardar Vallabhbhai National Institute Of Technology
117,Mahima Goyen,mahimagoyen@gmail.com,Participated,Texas AnM University
118,Tejaswini S,tejasmal56@gmail.com,Participated,H.K.B.K College Of Engineering
119,Ravi Mugidi,ravimugidi7@gmail.com,Participated,Rajiv Gandhi University of Knowledge and Technologies(RGUKT) Srikakulam
120,Nagamallishwar N,nnagamallishwar19e@iiitt.ac.in,Participated,"Indian Institute of Information Technology, Tiruchirappalli"
121,Vanshika Tanwar,vanshikatanwar30@gmail.com,Participated,"Dronacharya Group Of Institutions, Greater Noida"